…
    ##   [1] 1 0 1 1 1 0 0 1 0 0 1 0 0 1 0 0 0 0 0 0 0 0 0 0 0 0 0 0 0 0 0 0 0 0 1 0 0
    ##  [38] 1 0 0 0 0 0 0 0 0 0 0 1 0 0 1 0 0 0 1 1 0 1 0 0 0 0 0 0 0 0 0 0 0 0 0 0 1
    ##  [75] 0 0 0 0 0 0 0 0 0 0 0 0 0 0 0 0 0 1 0 0 0 0 0 0 0 1 0 1 0 0 1 0 0 1 0 0 0
    ## [112] 1 0 0 0 0 0 0 0 1 1 0 0 0 0 0 0 1 0 0 0 0 0 1 0 0 1 0 0 0 0 0 0 1 1 0 0 0
    ## [149] 0 1 1 0 1 0

``` r
# here I added the vector as a column to my test set just to be able to compare manually to the actual outcomes. 
diab.testset$knn25 <- nnar
diab.testset %>% 
  select(Outcome,knn25)
```

    ## # A tibble: 154 × 2
    ##    Outcome knn25
    ##      <dbl> <dbl>
    ##  1       1     1
    ##  2       1     0
    ##  3       1     1
    ##  4       1     1
    ##  5       1     1
    ##  6       1     0
    ##  7       1     0
    ##  8       1     1
    ##  9       0     0
    ## 10       0     0
    ## # ℹ 144 more rows
…
